^C:\USERS\ASTRIL\DOCUMENTS\VISUAL STUDIO 2012\PROJECTS\TEESOPENCV1\TEESOPENCV1\DEBUG\SOURCE.OBJ
C:\USERS\ASTRIL\DOCUMENTS\VISUAL STUDIO 2012\PROJECTS\TEESOPENCV1\DEBUG\TEESOPENCV1.ILK
C:\USERS\ASTRIL\DOCUMENTS\VISUAL STUDIO 2012\PROJECTS\TEESOPENCV1\DEBUG\TEESOPENCV1.EXE
C:\USERS\ASTRIL\DOCUMENTS\VISUAL STUDIO 2012\PROJECTS\TEESOPENCV1\DEBUG\TEESOPENCV1.PDB
^D:\PROJECT\CAR DETECTION\TEESOPENCV1\TEESOPENCV1\DEBUG\SOURCE.OBJ
D:\PROJECT\CAR DETECTION\TEESOPENCV1\DEBUG\TEESOPENCV1.ILK
D:\PROJECT\CAR DETECTION\TEESOPENCV1\DEBUG\TEESOPENCV1.EXE
D:\PROJECT\CAR DETECTION\TEESOPENCV1\DEBUG\TEESOPENCV1.PDB
