^D:\PROJECT\CAR DETECTION\TEESOPENCV1\TEESOPENCV1\RELEASE\SOURCE.OBJ
D:\PROJECT\CAR DETECTION\TEESOPENCV1\RELEASE\TEESOPENCV1.EXE
D:\PROJECT\CAR DETECTION\TEESOPENCV1\RELEASE\TEESOPENCV1.PDB
^D:\PROJECT\CAR DETECTION\CAR DETECTION\CAR_DETECTION\RELEASE\SOURCE.OBJ
D:\PROJECT\CAR DETECTION\CAR DETECTION\RELEASE\CAR_DETECTION.EXE
D:\PROJECT\CAR DETECTION\CAR DETECTION\RELEASE\CAR_DETECTION.PDB
